<?xml version="1.0" encoding="utf-8"?>
<!-- Generator: Adobe Illustrator 19.1.0, SVG Export Plug-In . SVG Version: 6.00 Build 0)  -->
<svg version="1.1" id="Layer_1" xmlns="http://www.w3.org/2000/svg" xmlns:xlink="http://www.w3.org/1999/xlink" x="0px" y="0px"
	 viewBox="-270 393.9 54 54" style="enable-background:new -270 393.9 54 54;" xml:space="preserve">
<style type="text/css">
	.st0{fill:none;stroke:#FF6E00;stroke-width:8;stroke-linecap:round;stroke-linejoin:round;stroke-miterlimit:10;}
</style>
<g>
	<path class="st0" d="M-265.5,424.3l15.2,19l29.7-44.8"/>
</g>
</svg>
